<?xml version="1.0" encoding="utf-8"?>
<!-- Generator: Adobe Illustrator 18.0.0, SVG Export Plug-In . SVG Version: 6.00 Build 0)  -->
<!DOCTYPE svg PUBLIC "-//W3C//DTD SVG 1.1//EN" "http://www.w3.org/Graphics/SVG/1.1/DTD/svg11.dtd">
<svg version="1.1" xmlns="http://www.w3.org/2000/svg" xmlns:xlink="http://www.w3.org/1999/xlink" x="0px" y="0px"
	 viewBox="0 0 750 261.164" enable-background="new 0 0 750 261.164" xml:space="preserve">
<g id="full_white">
</g>
<g id="GST_white">
</g>
<g id="full_black">
</g>
<g id="GST_black">
	<polygon fill="#232222" points="750,64.078 617.081,64.078 617.081,87.664 671.738,87.664 671.738,198.572 695.342,198.572 
		695.342,87.664 750,87.664 	"/>
	<path fill="#232222" d="M459.753,198.59l-0.018-23.692h107.56c8.793,0,15.921-7.128,15.921-15.903
		c0-8.776-7.127-15.903-15.903-15.903h-77.939c-21.759,0-39.47-17.747-39.47-39.524s17.711-39.489,39.488-39.489l107.56,0.054
		v23.585H489.374c-8.757,0-15.885,7.092-15.885,15.85c0,8.775,7.128,15.938,15.903,15.938h77.92
		c21.777,0,39.489,17.712,39.489,39.489s-17.712,39.488-39.489,39.488L459.753,198.59z"/>
	<path fill="#232222" d="M430.544,198.715l-87.377-0.053c-37.089,0-67.247-30.194-67.247-67.283
		c0-37.09,30.159-67.247,67.266-67.247h87.412v23.568h-87.412c-24.088,0-43.68,19.592-43.68,43.68
		c0,24.087,19.592,43.679,43.68,43.679l63.773,0.054v-32.737h-65.027v-23.586h88.612V198.715z"/>
	<path fill="#E2231A" d="M130.537,26.47h1.594C156.54,26.004,178.586,16.01,194.722,0c14.416,7.146,27.489,16.584,38.611,27.723
		c11.247,11.121,20.578,24.177,27.722,38.611c-16.01,16.136-26.003,38.289-26.469,62.717v1.594v1.594
		c0.466,24.41,10.459,46.455,26.469,62.591c-7.145,14.416-16.475,27.489-27.722,38.736c-11.121,11.139-24.195,20.56-38.611,27.598
		c-16.136-16.01-38.182-26.004-62.591-26.47h-1.594h-1.595c-24.427,0.466-46.473,10.46-62.59,26.47
		c-14.434-7.038-27.508-16.459-38.629-27.598C16.476,222.319,7.164,209.245,0,194.829c16.01-16.136,26.021-38.182,26.47-62.591
		v-1.594v-1.594C26.021,104.623,16.01,82.47,0,66.334C7.164,51.9,16.476,38.845,27.723,27.723C38.845,16.584,51.918,7.146,66.352,0
		c16.118,16.01,38.163,26.004,62.59,26.47H130.537z"/>
	<g>
		<path fill="#FFFFFF" d="M175.003,120.83c-0.03,0-0.044,0-0.074,0c-1.141-18.022-16.14-32.282-34.458-32.282
			c-16.911,0-30.976,12.143-33.955,28.166c-0.385-0.015-0.786-0.03-1.171-0.03c-12.598,0-23.224,8.337-26.692,19.784
			c-0.534-0.044-1.082-0.074-1.63-0.074c-9.945,0-18.022,8.056-18.022,18.007s8.063,18.007,18.007,18.007c0.148,0,97.98,0,97.98,0
			c14.258,0,25.803-11.551,25.803-25.781C200.791,132.395,189.26,120.83,175.003,120.83z"/>
	</g>
	<g>
		<path d="M548.522,260.767c-3.693,0-6.406-0.857-8.138-2.573c-1.734-1.716-2.6-4.403-2.6-8.058v-17.907
			c0-3.917,0.895-6.761,2.685-8.534c1.789-1.771,4.663-2.657,8.618-2.657h20.346v7.912h-18.086c-2.26,0-3.391,1.125-3.391,3.375
			v18.002c0,0.862,0.254,1.547,0.763,2.052c0.508,0.507,1.196,0.76,2.063,0.76c0.715,0,1.544,0,2.486,0c0.942,0,1.922,0,2.939,0
			c1.018,0,2.044,0,3.08,0c1.036,0,2.043-0.16,3.024-0.481c2.297,0,4.672,0,7.121,0v7.386c-2.525,0.483-5.03,0.723-7.516,0.723
			c-2.148,0-4.419,0-6.81,0C552.713,260.767,550.518,260.767,548.522,260.767z"/>
		<path d="M589.778,252.686h20.629v7.912h-30.801v-39.561h10.172V252.686z"/>
		<path d="M655.618,249.86c0,3.957-0.896,6.83-2.685,8.619c-1.79,1.79-4.662,2.685-8.619,2.685h-14.129
			c-3.955,0-6.829-0.895-8.618-2.685c-1.79-1.789-2.685-4.663-2.685-8.619v-18.085c0-3.955,0.895-6.828,2.685-8.618
			c1.789-1.789,4.663-2.685,8.618-2.685h14.129c3.957,0,6.829,0.896,8.619,2.685c1.789,1.79,2.685,4.663,2.685,8.618V249.86z
			 M645.446,231.774c0-2.261-1.131-3.391-3.392-3.391h-9.607c-2.262,0-3.392,1.13-3.392,3.391v18.085
			c0,2.261,1.13,3.391,3.392,3.391h9.607c2.26,0,3.392-1.13,3.392-3.391V231.774z"/>
		<path d="M692.354,221.037h10.172v28.822c0,3.957-0.896,6.83-2.685,8.619c-1.79,1.79-4.663,2.685-8.619,2.685h-12.998
			c-3.957,0-6.83-0.895-8.619-2.685c-1.79-1.789-2.685-4.663-2.685-8.619v-28.822h10.172v28.822c0,2.261,1.131,3.391,3.392,3.391
			h8.476c2.261,0,3.392-1.13,3.392-3.391V221.037z"/>
		<path d="M737.001,221.037c4.258,0,7.489,1.102,9.693,3.306c2.204,2.204,3.306,5.435,3.306,9.693v13.563
			c0,4.258-1.102,7.489-3.306,9.693s-5.435,3.306-9.693,3.306H714.96v-39.561H737.001z M739.828,234.036
			c0-3.392-1.696-5.087-5.087-5.087h-9.608v23.737h9.608c3.391,0,5.087-1.696,5.087-5.087V234.036z"/>
	</g>
</g>
</svg>
